{
  "type": "service_account",
  "project_id": "bt3103-nlp",
  "private_key_id": "f6c0f8585805e8750b0ee99a5ae72360476b213a",
  "private_key": "-----BEGIN PRIVATE KEY-----\nMIIEvgIBADANBgkqhkiG9w0BAQEFAASCBKgwggSkAgEAAoIBAQCYodaMjx+dHUSD\nLH++KSJt5/0Al9ocmYxH0EApu0kfQdswNPm/83AVeXi79VhYVhKYZU+QufUngI8+\nf2KC3PCMKlbAZ/2sCwabZA+2KiFhY0b66fjpGB7+9SHHbVUXWm76EKco+XcL7BYl\nU6M2WT/5rKuz3etpeU4bJnGw6E3HfRfIjdmz8f424UmsW1mx1JzvppaDaqu6IRRd\nXmhw1KI9zufK2ILKheOJkHAxspXHkcmz09AcDMgtA+a55lLwESX7NyqCUoBN3G7s\nTZwUeOTuG8GYtSmMCOzjOnNpZvMVxPcXRM+qcok249b1IP0+iHbjK8ycLeEr9fZK\neEsBar1PAgMBAAECggEACl0i1lR5jw+HsWh6HA1q+w9/jGTDOKHsdovbb3n6ExdD\nrNhMBQ6gk7S1z/1uzEC77oEij+8wiEggcdvwcnZSFxJg5ZuqC96Lyk1XC8V8ksJM\n9YihkCJFKIa4jnQMDRPk6THsR8n4nWSgdFRjhrM0tt1Uo1f0PiswdIN9wMdlUKBA\n6ThHTLH8fE8isVH0+rmWtmU2hTfidpZOQ5a7TmJXM6io3K+c9hZCRdQehYIa8nAI\nAl20Q67cAuVS5MwOYn33yx3ykROGBaRjmkwbN524UeCk+yjU/m1oaBGQZXC8gW9c\n9h6j9HOEK3vin3KVdYHrpngw1gJDijFM03OIPMDqwQKBgQDWDWpSb+y0vXkkRYRn\nXulVPyNOVKCIV803UmYLzQBplVGxeyHnA7XqEh2/oZcrs/Ygkfc4JAlqUgf+w6EX\neahxMPM15cme1pKVhH3gZv7C9I+G/kAeAcG6L78APPmlxhIeABMvivj/1GeEdEGS\nF1snFJ2eUaRUw0utXwU/eNnSnwKBgQC2ixeIXDk5duW61V8Kckv1p8XYyJiusKL5\nH2SUCGiNdGBrC3UpbZLb5GI3biEkF1k/X27oqI9K4p2v7DS2FLS97qNa89ttiY8K\nnC3DDqVIT8jQavMjSMm9JNBzHaJ2CAazfzpAGnFU+gLujtcVFfRK1kX3KvLZ0L4h\nhvwYSctHUQKBgFbVVl5e3S1s96nJMa8lh453cIEkP4NP6wYYPSFoZlRuqJdRFi27\nCZ8M/lhw2vx1otEPpbR2mgMxh+DHx5/YUIaqjt88epAfB5P0DYRtA8heoaLnnWcO\n22IGYHteQQAI2+yjpyTQQba2mc/XwYncQ7QU3uQMxpdEKn0IYP6greyNAoGBAIH9\nSJO9AK8QIQXL3fMlczwK7hOyvS9g750xosDbwABDSEnSDeujcLoPx3UrgoQd8Fr1\njZg2OFweRiY5sUucMR0zq7YgAzjchTUMBHZrnn2A+0KXdm7A7ZA4gAwJpWAh1QvL\nZOKzMdNOefoBU95bFOyZ65bYSbmcMVjUs/5jxlMRAoGBAMDIpKp0xazOzQxMQyuw\nt5EgnHABATCRrozJFNg0JRvWamtkNUwRYh+mkciBqBLemYFX3xRNHl1UL1CHGMbp\nrK0JRyzKKYM6GlvVT6cvbJXFeh7QZxbdYVJZ+3xy4aFh10hWhbPPUa56TSdOm/LQ\n7Xv0ONLjgGv13N8WDwh8VlCh\n-----END PRIVATE KEY-----\n",
  "client_email": "daniel0037190@bt3103-nlp.iam.gserviceaccount.com",
  "client_id": "114165552019300767883",
  "auth_uri": "https://accounts.google.com/o/oauth2/auth",
  "token_uri": "https://accounts.google.com/o/oauth2/token",
  "auth_provider_x509_cert_url": "https://www.googleapis.com/oauth2/v1/certs",
  "client_x509_cert_url": "https://www.googleapis.com/robot/v1/metadata/x509/daniel0037190%40bt3103-nlp.iam.gserviceaccount.com"
}
