Name,Long,Lat
Pasir Ris,9.8,78.1
Tampines,9.9,75.6
Simei,10,73.3
Tanah Merah,6.04,71.7
Bedok,-1.51,71.7
Kembangan,-9.42,71.7
Eunos,-16.8,71.7
Paya Lebar,-25,71.7
Aljunied,-35.9,70.6
Kallang,-40.7,69
Lavender,-45.1,67.2
Bugis,-50.1,65
City Hall,-63.6,59
Raffles Place,-67.8,56.6
Tanjong Pagar,-87.1,53.3
Outram Park,-96.6,58.6
Tiong Bahru,-103,61.7
Redhill,-107.5,64
Queenstown,-112.4,65.8
Commonwealth,-117,67.7
Buona Vista,-121,69.2
Dover,-126.5,71
Clementi,-131,72.5
Jurong East,-144.4,73.3
Chinese Garden,-154,73.3
Lakeside,-162.7,73.3
Boon Lay,-171.5,73.3
Pioneer,-177,75
Joo Koon,-177,76.5
Gul Circle,-177,77.9
Tuas Crescent,-177,79.1
Tuas West Road,-177,80.3
Tuas Link,-177,81.2
