"Name","Long","Lat"
"Harbour Front",-120.3,44.2
"Outram Park",-96.6,58.6
"Chinatown",-91.9,61.1
"Clarke Quay",-86.5,63.5
"Dhoby Ghaut",-76,68
"Little India",-66.3,71.1
"Farrer Park",-61.5,72.8
"Boon Keng",-56.8,74
"Potong Pasir",-52,75.3
"Woodleigh",-48,77.2
"Serangoon",-48.2,78.4
"Kovan",-44.9,79.8
"Hougang",-40.4,80.4
"Buangkok",-36.4,81.1
"Sengkang",-31.6,81.8
"Punggol",-18.9,83.5
