"Line","Date","StatusText"
"DTL",2017-10-15 14:12:00,"Resumed"
"DTL",2017-10-15 13:04:00,"Breakdown"
"NEL",2017-10-07 13:03:00,"Resumed"
"NEL",2017-10-07 12:39:00,"Delay"
"NEL",2017-10-03 14:41:00,"Resumed"
"NEL",2017-10-03 13:31:00,"Delay"
"NEL",2017-09-12 18:19:00,"Resumed"
"NEL",2017-09-12 18:04:00,"Delay"
"DTL",2017-08-18 10:06:00,"Resumed"
"DTL",2017-08-18 06:25:00,"Breakdown"
"NEL",2017-08-07 20:04:00,"Resumed"
"NEL",2017-08-07 19:12:00,"Delay"
"NEL",2017-07-17 08:13:00,"Resumed"
"NEL",2017-07-17 08:02:00,"Delay"
"NEL",2017-07-08 06:50:00,"Resumed"
"NEL",2017-07-08 05:48:00,"Delay"
"DTL",2017-06-07 20:53:00,"Resumed"
"DTL",2017-06-07 20:22:00,"Delay"
"NEL",2017-06-01 12:51:00,"Resumed"
"NEL",2017-06-01 12:39:00,"Delay"
"NEL",2017-04-30 22:03:00,"Resumed"
"NEL",2017-04-30 21:18:00,"Delay"
"DTL",2017-01-31 20:03:00,"Resumed"
"DTL",2017-01-31 18:43:00,"Delay"
"EWL",2017-11-04 15:30:00,"Resumed"
"EWL",2017-11-04 14:53:00,"Delay"
"NSL",2017-10-27 07:07:00,"Resumed"
"NSL",2017-10-27 05:56:00,"Delay"
"NSL",2017-10-25 10:13:00,"Resumed"
"NSL",2017-10-25 05:00:00,"Delay"
"NSL",2017-10-08 13:52:00,"Resumed"
"NSL",2017-10-08 05:15:00,"Breakdown"
"NSL",2017-10-04 18:24:00,"Resumed"
"NSL",2017-10-04 18:01:00,"Delay"
"EWL",2017-09-28 08:37:00,"Resumed"
"EWL",2017-09-28 05:53:00,"Delay"
"NSL",2017-09-15 22:09:00,"Resumed"
"NSL",2017-09-15 21:06:00,"Delay"
"CCL",2017-09-11 10:27:00,"Resumed"
"CCL",2017-09-11 09:25:00,"Delay"
"NSL",2017-08-31 18:55:00,"Resumed"
"NSL",2017-08-31 18:19:00,"Delay"
"EWL",2017-08-30 12:28:00,"Resumed"
"EWL",2017-08-30 08:13:00,"Delay"
"NSL",2017-08-23 08:53:00,"Resumed"
"NSL",2017-08-23 07:32:00,"Delay"
"NSL",2017-08-18 09:22:00,"Resumed"
"NSL",2017-08-18 06:29:00,"Delay"
"NSL",2017-08-17 20:18:00,"Resumed"
"NSL",2017-08-17 18:18:00,"Delay"
"EWL",2017-07-25 11:59:00,"Resumed"
"EWL",2017-07-25 11:15:00,"Breakdown"
"EWL",2017-07-25 11:06:00,"Resumed"
"EWL",2017-07-25 08:51:00,"Delay"
"CCL",2017-07-21 22:28:00,"Resumed"
"CCL",2017-07-21 22:08:00,"Delay"
"EWL",2017-07-21 17:45:00,"Resumed"
"EWL",2017-07-21 17:34:00,"Delay"
"NSL",2017-07-13 01:20:00,"Resumed"
"NSL",2017-07-13 00:30:00,"Breakdown"
"EWL",2017-07-13 00:20:00,"Resumed"
"EWL",2017-07-13 00:02:00,"Breakdown"
"EWL",2017-07-12 10:58:00,"Resumed"
"EWL",2017-07-12 08:41:00,"Delay"
"EWL",2017-07-10 20:31:00,"Resumed"
"EWL",2017-07-10 18:46:00,"Delay"
"NSL",2017-07-07 09:13:00,"Resumed"
"NSL",2017-07-07 08:31:00,"Delay"
"EWL",2017-07-05 19:29:00,"Resumed"
"EWL",2017-07-05 19:02:00,"Delay"
"NSL",2017-06-30 08:48:00,"Resumed"
"NSL",2017-06-30 06:32:00,"Delay"
"NSL",2017-06-28 19:33:00,"Resumed"
"NSL",2017-06-28 18:10:00,"Delay"
"EWL",2017-06-28 17:56:00,"Resumed"
"EWL",2017-06-28 17:22:00,"Breakdown"
"EWL",2017-06-14 12:55:00,"Resumed"
"EWL",2017-06-14 08:13:00,"Delay"
"NSL",2017-06-12 09:47:00,"Resumed"
"NSL",2017-06-12 09:10:00,"Delay"
"NSL",2017-06-02 20:27:00,"Resumed"
"NSL",2017-06-02 17:05:00,"Delay"
"NSL",2017-06-01 19:41:00,"Resumed"
"NSL",2017-06-01 18:47:00,"Delay"
"NSL",2017-05-29 18:28:00,"Resumed"
"NSL",2017-05-29 18:04:00,"Delay"
"NSL",2017-05-28 16:00:00,"Resumed"
"NSL",2017-05-28 14:56:00,"Breakdown"
"NSL",2017-05-04 08:11:00,"Resumed"
"NSL",2017-05-04 07:45:00,"Delay"
"NSL",2017-04-21 06:15:00,"Resumed"
"NSL",2017-04-21 05:07:00,"Breakdown"
"EWL",2017-04-18 10:58:00,"Resumed"
"EWL",2017-04-18 08:35:00,"Delay"
"NSL",2017-04-18 12:41:00,"Resumed"
"NSL",2017-04-18 07:19:00,"Delay"
"EWL",2017-04-11 08:21:00,"Resumed"
"EWL",2017-04-11 07:44:00,"Delay"
"EWL",2017-04-10 10:35:00,"Resumed"
"EWL",2017-04-10 09:31:00,"Delay"
"NSL",2017-04-03 12:37:00,"Resumed"
"NSL",2017-04-03 12:13:00,"Delay"
"NSL",2017-03-31 07:25:00,"Resumed"
"NSL",2017-03-31 07:12:00,"Delay"
"EWL",2017-03-30 18:54:00,"Resumed"
"EWL",2017-03-30 17:57:00,"Delay"
"NSL",2017-03-28 22:33:00,"Resumed"
"NSL",2017-03-28 20:44:00,"Delay"
"EWL",2017-03-15 11:55:00,"Resumed"
"EWL",2017-03-15 11:28:00,"Delay"
"CCL",2017-02-24 07:43:00,"Resumed"
"CCL",2017-02-24 07:32:00,"Delay"
"EWL",2017-02-23 09:02:00,"Resumed"
"EWL",2017-02-23 08:28:00,"Delay"
"NSL",2017-02-13 08:26:00,"Resumed"
"NSL",2017-02-13 07:58:00,"Delay"
"EWL",2017-02-12 12:06:00,"Resumed"
"EWL",2017-02-12 05:58:00,"Breakdown"
"NSL",2017-02-10 08:51:00,"Resumed"
"NSL",2017-02-10 08:06:00,"Delay"
"EWL",2017-02-07 09:11:00,"Resumed"
"EWL",2017-02-07 08:12:00,"Delay"
"EWL",2017-01-23 22:17:00,"Resumed"
"EWL",2017-01-23 18:34:00,"Delay"
"EWL",2017-01-19 09:50:00,"Resumed"
"EWL",2017-01-19 07:46:00,"Delay"
"NSL",2017-01-13 23:08:00,"Resumed"
"NSL",2017-01-13 20:29:00,"Delay"
"EWL",2017-01-04 08:38:00,"Resumed"
"EWL",2017-01-04 07:47:00,"Delay"
